…
## Review
Now that you have been introduced to `ggplot`, let's practice a few more plot types. Remember that plots are built in layers: **plot= data + geom_ + aesthetics**. We have to specify each of these in order for a plot to be produced. If you get stuck, it is often helpful to stop and make a quick sketch of what you want or expect to see on a piece of scratch paper.  

Let's review using the `penguins` data. First, get an idea of the structure: Are the data tidy? Are there NA's? Are the variables discrete, categorical, or continuous?

```r
penguins
```

```
## # A tibble: 344 × 8
##    species island    bill_length_mm bill_depth_mm flipper_length_mm body_mass_g
##    <fct>   <fct>              <dbl>         <dbl>             <int>       <int>
##  1 Adelie  Torgersen           39.1          18.7               181        3750
##  2 Adelie  Torgersen           39.5          17.4               186        3800
##  3 Adelie  Torgersen           40.3          18                 195        3250
##  4 Adelie  Torgersen           NA            NA                  NA          NA
##  5 Adelie  Torgersen           36.7          19.3               193        3450
##  6 Adelie  Torgersen           39.3          20.6               190        3650
##  7 Adelie  Torgersen           38.9          17.8               181        3625
##  8 Adelie  Torgersen           39.2          19.6               195        4675
##  9 Adelie  Torgersen           34.1          18.1               193        3475
## 10 Adelie  Torgersen           42            20.2               190        4250
## # ℹ 334 more rows
## # ℹ 2 more variables: sex <fct>, year <int>
```
…
