…
```r
wolves
```

```
## # A tibble: 1,986 × 23
##    pop     year age_cat sex   color   lat  long habitat human pop_density
##    <chr>  <dbl> <chr>   <chr> <chr> <dbl> <dbl>   <dbl> <dbl>       <dbl>
##  1 AK.PEN  2006 S       F     G      57.0 -158.    254.  10.4           8
##  2 AK.PEN  2006 S       M     G      57.0 -158.    254.  10.4           8
##  3 AK.PEN  2006 A       F     G      57.0 -158.    254.  10.4           8
##  4 AK.PEN  2006 S       M     B      57.0 -158.    254.  10.4           8
##  5 AK.PEN  2006 A       M     B      57.0 -158.    254.  10.4           8
##  6 AK.PEN  2006 A       M     G      57.0 -158.    254.  10.4           8
##  7 AK.PEN  2006 A       F     G      57.0 -158.    254.  10.4           8
##  8 AK.PEN  2006 P       M     G      57.0 -158.    254.  10.4           8
##  9 AK.PEN  2006 S       F     G      57.0 -158.    254.  10.4           8
## 10 AK.PEN  2006 P       M     G      57.0 -158.    254.  10.4           8
## # ℹ 1,976 more rows
## # ℹ 13 more variables: pack_size <dbl>, standard_habitat <dbl>,
## #   standard_human <dbl>, standard_pop <dbl>, standard_packsize <dbl>,
## #   standard_latitude <dbl>, standard_longitude <dbl>, cav_binary <dbl>,
## #   cdv_binary <dbl>, cpv_binary <dbl>, chv_binary <dbl>, neo_binary <dbl>,
## #   toxo_binary <dbl>
```
…
```r
miss_var_summary(wolves)
```

```
## # A tibble: 23 × 3
##    variable    n_miss pct_miss
##    <chr>        <int>    <dbl>
##  1 toxo_binary    827   41.6  
##  2 color          616   31.0  
##  3 chv_binary     548   27.6  
##  4 neo_binary     538   27.1  
##  5 cav_binary     321   16.2  
##  6 age_cat        102    5.14 
##  7 cdv_binary      21    1.06 
##  8 sex             19    0.957
##  9 cpv_binary       7    0.352
## 10 pop              0    0    
## # ℹ 13 more rows
```

6. How many distinct wolf populations are included in this study? Make a new object that restricts the data to the wolf populations in the lower 48 US states. Note, the lower 48 states means we do not include Alaska and Hawaii

```r
lower48_wolves <- wolves %>% 
  filter(pop %in% c( "MT", "YNP", "GNTP","SNF", "MI"))
lower48_wolves
```

```
## # A tibble: 928 × 23
##    pop    year age_cat sex   color   lat  long habitat human pop_density
##    <chr> <dbl> <chr>   <chr> <chr> <dbl> <dbl>   <dbl> <dbl>       <dbl>
##  1 MI     2004 S       F     <NA>   46.1 -86.8   9511. 6229.        23.0
##  2 MI     2008 A       F     <NA>   46.1 -86.8   9511. 6229.        23.0
##  3 MI     2008 A       F     <NA>   46.1 -86.8   9511. 6229.        23.0
##  4 MI     2008 A       F     <NA>   46.1 -86.8   9511. 6229.        23.0
##  5 MI     2008 <NA>    <NA>  <NA>   46.1 -86.8   9511. 6229.        23.0
##  6 MI     2008 P       M     <NA>   46.1 -86.8   9511. 6229.        23.0
##  7 MI     2008 A       F     <NA>   46.1 -86.8   9511. 6229.        23.0
##  8 MI     2008 A       M     <NA>   46.1 -86.8   9511. 6229.        23.0
##  9 MI     2009 A       M     <NA>   46.1 -86.8   9511. 6229.        23.0
## 10 MI     2009 A       F     <NA>   46.1 -86.8   9511. 6229.        23.0
## # ℹ 918 more rows
## # ℹ 13 more variables: pack_size <dbl>, standard_habitat <dbl>,
## #   standard_human <dbl>, standard_pop <dbl>, standard_packsize <dbl>,
## #   standard_latitude <dbl>, standard_longitude <dbl>, cav_binary <dbl>,
## #   cdv_binary <dbl>, cpv_binary <dbl>, chv_binary <dbl>, neo_binary <dbl>,
## #   toxo_binary <dbl>
```
…
