…
**1. Use the function(s) of your choice to get an idea of the overall structure of the data frame, including its dimensions, column names, variable classes, etc. As part of this, determine how NAs are treated in the data.**  

```r
gapminder <- gapminder %>% clean_names()
gapminder
```

```
## # A tibble: 1,704 × 6
##    country     continent  year life_exp      pop gdp_percap
##    <fct>       <fct>     <int>    <dbl>    <int>      <dbl>
##  1 Afghanistan Asia       1952     28.8  8425333       779.
##  2 Afghanistan Asia       1957     30.3  9240934       821.
##  3 Afghanistan Asia       1962     32.0 10267083       853.
##  4 Afghanistan Asia       1967     34.0 11537966       836.
##  5 Afghanistan Asia       1972     36.1 13079460       740.
##  6 Afghanistan Asia       1977     38.4 14880372       786.
##  7 Afghanistan Asia       1982     39.9 12881816       978.
##  8 Afghanistan Asia       1987     40.8 13867957       852.
##  9 Afghanistan Asia       1992     41.7 16317921       649.
## 10 Afghanistan Asia       1997     41.8 22227415       635.
## # ℹ 1,694 more rows
```
…
**2. Among the interesting variables in gapminder is life expectancy. How has global life expectancy changed between 1952 and 2007?**


```r
gapminder %>% 
  mutate(year=as.factor(year)) %>% 
  select(country,year,life_exp) %>% 
  filter(year=="1952"|year=="2007") %>% 
  pivot_wider(names_from ="year",values_from="year")
```

```
## # A tibble: 284 × 4
##    country     life_exp `1952` `2007`
##    <fct>          <dbl> <fct>  <fct> 
##  1 Afghanistan     28.8 1952   <NA>  
##  2 Afghanistan     43.8 <NA>   2007  
##  3 Albania         55.2 1952   <NA>  
##  4 Albania         76.4 <NA>   2007  
##  5 Algeria         43.1 1952   <NA>  
##  6 Algeria         72.3 <NA>   2007  
##  7 Angola          30.0 1952   <NA>  
##  8 Angola          42.7 <NA>   2007  
##  9 Argentina       62.5 1952   <NA>  
## 10 Argentina       75.3 <NA>   2007  
## # ℹ 274 more rows
```
…
```
## `summarise()` has grouped output by 'continent'. You can override using the
## `.groups` argument.
```

```
## # A tibble: 60 × 5
## # Groups:   continent [5]
##    continent year  min_life_exp mean_life_exp max_life_exp
##    <fct>     <fct>        <dbl>         <dbl>        <dbl>
##  1 Africa    1952          30            39.1         52.7
##  2 Africa    1957          31.6          41.3         58.1
##  3 Africa    1962          32.8          43.3         60.2
##  4 Africa    1967          34.1          45.3         61.6
##  5 Africa    1972          35.4          47.5         64.3
##  6 Africa    1977          36.8          49.6         67.1
##  7 Africa    1982          38.4          51.6         69.9
##  8 Africa    1987          39.9          53.3         71.9
##  9 Africa    1992          23.6          53.6         73.6
## 10 Africa    1997          36.1          53.6         74.8
## # ℹ 50 more rows
```
…
**7. Which countries have had the largest population growth since 1952?**
Numerical Summary 

```r
gapminder %>% 
  mutate(year=as.factor(year)) %>% 
  select(country,year,pop) %>% 
  filter(year== "1952" | year =="2007") %>% 
  pivot_wider(names_from =year,names_prefix = "yr_", values_from=pop) %>% 
  mutate(pop_growth=yr_2007-yr_1952) %>% 
  arrange(desc(pop_growth))
```

```
## # A tibble: 142 × 4
##    country         yr_1952    yr_2007 pop_growth
##    <fct>             <int>      <int>      <int>
##  1 China         556263527 1318683096  762419569
##  2 India         372000000 1110396331  738396331
##  3 United States 157553000  301139947  143586947
##  4 Indonesia      82052000  223547000  141495000
##  5 Brazil         56602560  190010647  133408087
##  6 Pakistan       41346560  169270617  127924057
##  7 Bangladesh     46886859  150448339  103561480
##  8 Nigeria        33119096  135031164  101912068
##  9 Mexico         30144317  108700891   78556574
## 10 Philippines    22438691   91077287   68638596
## # ℹ 132 more rows
```
…
**8. Use your results from the question above to plot population growth for the top five countries since 1952.**


```r
gapminder %>% 
  mutate(year=as.factor(year)) %>% 
  select(country,year,pop) %>% 
  filter(year== "1952" | year =="2007") %>% 
  pivot_wider(names_from =year,names_prefix = "yr_", values_from=pop) %>% 
  mutate(pop_growth=yr_2007-yr_1952) %>% 
  arrange(desc(pop_growth))
```

```
## # A tibble: 142 × 4
##    country         yr_1952    yr_2007 pop_growth
##    <fct>             <int>      <int>      <int>
##  1 China         556263527 1318683096  762419569
##  2 India         372000000 1110396331  738396331
##  3 United States 157553000  301139947  143586947
##  4 Indonesia      82052000  223547000  141495000
##  5 Brazil         56602560  190010647  133408087
##  6 Pakistan       41346560  169270617  127924057
##  7 Bangladesh     46886859  150448339  103561480
##  8 Nigeria        33119096  135031164  101912068
##  9 Mexico         30144317  108700891   78556574
## 10 Philippines    22438691   91077287   68638596
## # ℹ 132 more rows
```
…
