…
```r
superhero_info <- clean_names(superhero_info)
superhero_info
```

```
## # A tibble: 734 × 10
##    name  gender eye_color race  hair_color height publisher skin_color alignment
##    <chr> <chr>  <chr>     <chr> <chr>       <dbl> <chr>     <chr>      <chr>    
##  1 A-Bo… Male   yellow    Human No Hair       203 Marvel C… <NA>       good     
##  2 Abe … Male   blue      Icth… No Hair       191 Dark Hor… blue       good     
##  3 Abin… Male   blue      Unga… No Hair       185 DC Comics red        good     
##  4 Abom… Male   green     Huma… No Hair       203 Marvel C… <NA>       bad      
##  5 Abra… Male   blue      Cosm… Black          NA Marvel C… <NA>       bad      
##  6 Abso… Male   blue      Human No Hair       193 Marvel C… <NA>       bad      
##  7 Adam… Male   blue      <NA>  Blond          NA NBC - He… <NA>       good     
##  8 Adam… Male   blue      Human Blond         185 DC Comics <NA>       good     
##  9 Agen… Female blue      <NA>  Blond         173 Marvel C… <NA>       good     
## 10 Agen… Male   brown     Human Brown         178 Marvel C… <NA>       good     
## # ℹ 724 more rows
## # ℹ 1 more variable: weight <dbl>
```
…
2. Notice that we have some neutral superheros! Who are they? List their names below.  

```r
superhero_info %>% 
  select(name, alignment) %>% 
  filter(alignment=="neutral")
```

```
## # A tibble: 24 × 2
##    name         alignment
##    <chr>        <chr>    
##  1 Bizarro      neutral  
##  2 Black Flash  neutral  
##  3 Captain Cold neutral  
##  4 Copycat      neutral  
##  5 Deadpool     neutral  
##  6 Deathstroke  neutral  
##  7 Etrigan      neutral  
##  8 Galactus     neutral  
##  9 Gladiator    neutral  
## 10 Indigo       neutral  
## # ℹ 14 more rows
```
…
```
##  [1] "name"       "gender"     "eye_color"  "race"       "hair_color"
##  [6] "height"     "publisher"  "skin_color" "alignment"  "weight"
```


```r
superhero_info %>% 
  select(name,alignment,race)
```

```
## # A tibble: 734 × 3
##    name          alignment race             
##    <chr>         <chr>     <chr>            
##  1 A-Bomb        good      Human            
##  2 Abe Sapien    good      Icthyo Sapien    
##  3 Abin Sur      good      Ungaran          
##  4 Abomination   bad       Human / Radiation
##  5 Abraxas       bad       Cosmic Entity    
##  6 Absorbing Man bad       Human            
##  7 Adam Monroe   good      <NA>             
##  8 Adam Strange  good      Human            
##  9 Agent 13      good      <NA>             
## 10 Agent Bob     good      Human            
## # ℹ 724 more rows
```

## Not Human
4. List all of the superheros that are not human.

```r
superhero_info %>% 
  filter(race != "Human")
```

```
## # A tibble: 222 × 10
##    name  gender eye_color race  hair_color height publisher skin_color alignment
##    <chr> <chr>  <chr>     <chr> <chr>       <dbl> <chr>     <chr>      <chr>    
##  1 Abe … Male   blue      Icth… No Hair       191 Dark Hor… blue       good     
##  2 Abin… Male   blue      Unga… No Hair       185 DC Comics red        good     
##  3 Abom… Male   green     Huma… No Hair       203 Marvel C… <NA>       bad      
##  4 Abra… Male   blue      Cosm… Black          NA Marvel C… <NA>       bad      
##  5 Ajax  Male   brown     Cybo… Black         193 Marvel C… <NA>       bad      
##  6 Alien Male   <NA>      Xeno… No Hair       244 Dark Hor… black      bad      
##  7 Amazo Male   red       Andr… <NA>          257 DC Comics <NA>       bad      
##  8 Angel Male   <NA>      Vamp… <NA>           NA Dark Hor… <NA>       good     
##  9 Ange… Female yellow    Muta… Black         165 Marvel C… <NA>       good     
## 10 Anti… Male   yellow    God … No Hair        61 DC Comics <NA>       bad      
## # ℹ 212 more rows
## # ℹ 1 more variable: weight <dbl>
```
Please note that only superheros with `Human` listed in the `race` column were considered `Human` for this analysis. As such, human hybride superheros were considered `Not Human`

## Good and Evil
5. Let's make two different data frames, one focused on the "good guys" and another focused on the "bad guys".

```r
good_guys <- (superhero_info) %>% 
  select(name, alignment, race) %>% 
  filter(alignment== "good")
good_guys
```

```
## # A tibble: 496 × 3
##    name         alignment race         
##    <chr>        <chr>     <chr>        
##  1 A-Bomb       good      Human        
##  2 Abe Sapien   good      Icthyo Sapien
##  3 Abin Sur     good      Ungaran      
##  4 Adam Monroe  good      <NA>         
##  5 Adam Strange good      Human        
##  6 Agent 13     good      <NA>         
##  7 Agent Bob    good      Human        
##  8 Agent Zero   good      <NA>         
##  9 Alan Scott   good      <NA>         
## 10 Alex Woolsly good      <NA>         
## # ℹ 486 more rows
```


```r
bad_guys <- (superhero_info) %>% 
  select(name, alignment, race) %>% 
  filter(alignment== "bad")
bad_guys
```

```
## # A tibble: 207 × 3
##    name          alignment race             
##    <chr>         <chr>     <chr>            
##  1 Abomination   bad       Human / Radiation
##  2 Abraxas       bad       Cosmic Entity    
##  3 Absorbing Man bad       Human            
##  4 Air-Walker    bad       <NA>             
##  5 Ajax          bad       Cyborg           
##  6 Alex Mercer   bad       Human            
##  7 Alien         bad       Xenomorph XX121  
##  8 Amazo         bad       Android          
##  9 Ammo          bad       Human            
## 10 Angela        bad       <NA>             
## # ℹ 197 more rows
```
…
```r
fancy_superheros <- select(superhero_powers, hero_names,agility,stealth,super_strength,stamina) %>% 
  filter(agility==TRUE) %>% 
  filter(stealth==TRUE) %>% 
  filter(super_strength==TRUE) %>% 
  filter(stamina==TRUE)
fancy_superheros
```

```
## # A tibble: 40 × 5
##    hero_names  agility stealth super_strength stamina
##    <chr>       <lgl>   <lgl>   <lgl>          <lgl>  
##  1 Alex Mercer TRUE    TRUE    TRUE           TRUE   
##  2 Angel       TRUE    TRUE    TRUE           TRUE   
##  3 Ant-Man II  TRUE    TRUE    TRUE           TRUE   
##  4 Aquaman     TRUE    TRUE    TRUE           TRUE   
##  5 Batman      TRUE    TRUE    TRUE           TRUE   
##  6 Black Flash TRUE    TRUE    TRUE           TRUE   
##  7 Black Manta TRUE    TRUE    TRUE           TRUE   
##  8 Brundlefly  TRUE    TRUE    TRUE           TRUE   
##  9 Buffy       TRUE    TRUE    TRUE           TRUE   
## 10 Cable       TRUE    TRUE    TRUE           TRUE   
## # ℹ 30 more rows
```
…
