…
```r
miss_var_summary(amniota)
```

```
## # A tibble: 36 × 3
##    variable                  n_miss pct_miss
##    <chr>                      <int>    <dbl>
##  1 class                          0        0
##  2 order                          0        0
##  3 family                         0        0
##  4 genus                          0        0
##  5 species                        0        0
##  6 subspecies                     0        0
##  7 common_name                    0        0
##  8 female_maturity_d              0        0
##  9 litter_or_clutch_size_n        0        0
## 10 litters_or_clutches_per_y      0        0
## # ℹ 26 more rows
```
…
```r
miss_var_summary(amphibio) %>% 
  mutate(total_NA=sum(n_miss))
```

```
## # A tibble: 38 × 4
##    variable n_miss pct_miss total_NA
##    <chr>     <int>    <dbl>    <int>
##  1 fruits     6774    100.    170566
##  2 flowers    6772     99.9   170566
##  3 seeds      6772     99.9   170566
##  4 leaves     6752     99.6   170566
##  5 dry_cold   6735     99.4   170566
##  6 vert       6657     98.2   170566
##  7 obs        6651     98.2   170566
##  8 wet_cold   6625     97.8   170566
##  9 crepu      6608     97.5   170566
## 10 dry_warm   6572     97.0   170566
## # ℹ 28 more rows
```
…
```
## # A tibble: 21,322 × 36
##    class order     family genus species subspecies common_name female_maturity_d
##    <chr> <chr>     <chr>  <chr> <chr>        <dbl> <chr>                   <dbl>
##  1 Aves  Accipitr… Accip… Acci… albogu…         NA Pied Gosha…               NA 
##  2 Aves  Accipitr… Accip… Acci… badius          NA Shikra                   363.
##  3 Aves  Accipitr… Accip… Acci… bicolor         NA Bicolored …               NA 
##  4 Aves  Accipitr… Accip… Acci… brachy…         NA New Britai…               NA 
##  5 Aves  Accipitr… Accip… Acci… brevip…         NA Levant Spa…              363.
##  6 Aves  Accipitr… Accip… Acci… castan…         NA Chestnut-f…               NA 
##  7 Aves  Accipitr… Accip… Acci… chilen…         NA Chilean Ha…               NA 
##  8 Aves  Accipitr… Accip… Acci… chiono…         NA White-brea…              548.
##  9 Aves  Accipitr… Accip… Acci… cirroc…         NA Collared S…               NA 
## 10 Aves  Accipitr… Accip… Acci… cooper…         NA Cooper's H…              730 
## # ℹ 21,312 more rows
## # ℹ 28 more variables: litter_or_clutch_size_n <dbl>,
## #   litters_or_clutches_per_y <dbl>, adult_body_mass_g <dbl>,
## #   maximum_longevity_y <dbl>, gestation_d <dbl>, weaning_d <dbl>,
## #   birth_or_hatching_weight_g <dbl>, weaning_weight_g <dbl>, egg_mass_g <dbl>,
## #   incubation_d <dbl>, fledging_age_d <dbl>, longevity_y <dbl>,
## #   male_maturity_d <dbl>, inter_litter_or_interbirth_interval_y <dbl>, …
```
…
Since we do see accurately accounted for NA values in the amphibio data, no changes are needed there. However, in the amniota datset, we have several variations of placeholder values in almost all variables that need to be accounted for and changed to NA. Using the `replace_with_NA` function, we can specify the exact variation of the NA placeholder used in each variable spot. To double check out work, we can view the new version of the amniota data to check that all -999 iterations are removed and replaced with NA. 

**6. Use the package `naniar` to produce a summary, including percentages, of missing data in each column for the `amniota` data.**  

```r
miss_var_summary(new_amniota)
```

```
## # A tibble: 36 × 3
##    variable                       n_miss pct_miss
##    <chr>                           <int>    <dbl>
##  1 subspecies                      21322    100  
##  2 female_body_mass_at_maturity_g  21318    100. 
##  3 fledging_mass_g                 21111     99.0
##  4 male_svl_cm                     21040     98.7
##  5 no_sex_maturity_d               20860     97.8
##  6 egg_width_mm                    20727     97.2
##  7 egg_length_mm                   20702     97.1
##  8 weaning_weight_g                20258     95.0
##  9 female_svl_cm                   20242     94.9
## 10 birth_or_hatching_svl_cm        20085     94.2
## # ℹ 26 more rows
```

**7. Use the package `naniar` to produce a summary, including percentages, of missing data in each column for the `amphibio` data.**

```r
miss_var_summary(amphibio)
```

```
## # A tibble: 38 × 3
##    variable n_miss pct_miss
##    <chr>     <int>    <dbl>
##  1 fruits     6774    100. 
##  2 flowers    6772     99.9
##  3 seeds      6772     99.9
##  4 leaves     6752     99.6
##  5 dry_cold   6735     99.4
##  6 vert       6657     98.2
##  7 obs        6651     98.2
##  8 wet_cold   6625     97.8
##  9 crepu      6608     97.5
## 10 dry_warm   6572     97.0
## # ℹ 28 more rows
```
…
