…
```r
sum(is.na(surgery))
```

```
## [1] 3783
```


```r
miss_var_summary(surgery)
```

```
## # A tibble: 25 × 3
##    variable          n_miss pct_miss
##    <chr>              <int>    <dbl>
##  1 bmi                 3290 10.3    
##  2 race                 480  1.50   
##  3 asa_status             8  0.0250 
##  4 gender                 3  0.00937
##  5 age                    2  0.00625
##  6 ahrq_ccs               0  0      
##  7 baseline_cancer        0  0      
##  8 baseline_cvd           0  0      
##  9 baseline_dementia      0  0      
## 10 baseline_diabetes      0  0      
## # ℹ 15 more rows
```
…
The variable `ccsmort30rate` is a measure of the overall 30-day mortality rate associated with each type of operation. The variable `ccscomplicationrate` is a measure of the 30-day in-hospital complication rate. The variable `ahrq_ccs` lists each type of operation.  

7. What are the 5 procedures associated with highest risk of 30-day mortality AND how do they compare with the 5 procedures with highest risk of complication? (hint: no need for a plot here)

```r
surgery %>% 
  select(ccsmort30rate,ccscomplicationrate,ahrq_ccs,gender) %>% 
  arrange(desc(ccsmort30rate))
```

```
## # A tibble: 32,001 × 4
##    ccsmort30rate ccscomplicationrate ahrq_ccs             gender
##            <dbl>               <dbl> <chr>                <chr> 
##  1        0.0167               0.312 Colorectal resection F     
##  2        0.0167               0.312 Colorectal resection M     
##  3        0.0167               0.312 Colorectal resection M     
##  4        0.0167               0.312 Colorectal resection F     
##  5        0.0167               0.312 Colorectal resection M     
##  6        0.0167               0.312 Colorectal resection F     
##  7        0.0167               0.312 Colorectal resection F     
##  8        0.0167               0.312 Colorectal resection F     
##  9        0.0167               0.312 Colorectal resection M     
## 10        0.0167               0.312 Colorectal resection M     
## # ℹ 31,991 more rows
```
…
9. When is the best month to have surgery? Make a chart that shows the 30-day mortality and complications for the patients by month. `mort30` is the variable that shows whether or not a patient survived 30 days post-operation.


```r
surgery %>% 
  filter(!gender =="NA") %>% 
  select(ccsmort30rate,ccscomplicationrate,gender,month) %>% 
  arrange(ccsmort30rate)
```

```
## # A tibble: 31,998 × 4
##    ccsmort30rate ccscomplicationrate gender month
##            <dbl>               <dbl> <chr>  <chr>
##  1             0              0.0562 M      Sep  
##  2             0              0.0562 M      Jan  
##  3             0              0.0562 M      Mar  
##  4             0              0.0562 M      Apr  
##  5             0              0.0562 M      Jun  
##  6             0              0.0562 M      Jun  
##  7             0              0.0562 M      Apr  
##  8             0              0.0562 M      Feb  
##  9             0              0.0562 M      Feb  
## 10             0              0.0562 M      Jul  
## # ℹ 31,988 more rows
```
…
