…
```r
ynp %>% 
  group_by(pack,biolyr) %>% 
  summarise(totalpersistance=mean(persisty1), 
            total=n()) %>% 
  arrange(desc(totalpersistance))
```

```
## `summarise()` has grouped output by 'pack'. You can override using the
## `.groups` argument.
```

```
## # A tibble: 248 × 4
## # Groups:   pack [46]
##    pack      biolyr totalpersistance total
##    <chr>      <int>            <dbl> <int>
##  1 682Mgroup   2009                1     1
##  2 8mile       2011                1     1
##  3 8mile       2012                1     1
##  4 8mile       2013                1     1
##  5 8mile       2014                1     1
##  6 8mile       2015                1     1
##  7 8mile       2016                1     1
##  8 8mile       2017                1     1
##  9 8mile       2018                1     1
## 10 8mile       2020                1     1
## # ℹ 238 more rows
```
…
