…
Let's start by making a clear x and y so we know what we are going to plot.

```r
deserts %>% 
  filter(species_id=="DM"| species_id== "DS") %>% 
  mutate(year=as.factor(year)) %>% 
  group_by(year,species_id) %>% 
  summarise(n=n(), .groups = 'keep') %>% #the end group command is to avoid an error, not necessary though 
  pivot_wider(names_from = species_id, values_from = n)
```

```
## # A tibble: 26 × 3
## # Groups:   year [26]
##    year     DM    DS
##    <fct> <int> <int>
##  1 1977    264    98
##  2 1978    389   320
##  3 1979    209   204
##  4 1980    493   346
##  5 1981    559   354
##  6 1982    609   354
##  7 1983    528   280
##  8 1984    396    76
##  9 1985    667    98
## 10 1986    406    88
## # ℹ 16 more rows
```
…
```r
homerange %>% 
  mutate(mass_category=case_when(log10.mass<=1.75~"small",
                                 log10.mass>=1.75 & log10.mass<=2.75 ~ "medium,",
                                 log10.mass>2.75 ~ "large"))
```

```
## # A tibble: 569 × 25
##    taxon        common.name class order family genus species primarymethod N    
##    <chr>        <chr>       <chr> <chr> <chr>  <chr> <chr>   <chr>         <chr>
##  1 lake fishes  american e… acti… angu… angui… angu… rostra… telemetry     16   
##  2 river fishes blacktail … acti… cypr… catos… moxo… poecil… mark-recaptu… <NA> 
##  3 river fishes central st… acti… cypr… cypri… camp… anomal… mark-recaptu… 20   
##  4 river fishes rosyside d… acti… cypr… cypri… clin… fundul… mark-recaptu… 26   
##  5 river fishes longnose d… acti… cypr… cypri… rhin… catara… mark-recaptu… 17   
##  6 river fishes muskellunge acti… esoc… esoci… esox  masqui… telemetry     5    
##  7 marine fish… pollack     acti… gadi… gadid… poll… pollac… telemetry     2    
##  8 marine fish… saithe      acti… gadi… gadid… poll… virens  telemetry     2    
##  9 marine fish… lined surg… acti… perc… acant… acan… lineat… direct obser… <NA> 
## 10 marine fish… orangespin… acti… perc… acant… naso  litura… telemetry     8    
## # ℹ 559 more rows
## # ℹ 16 more variables: mean.mass.g <dbl>, log10.mass <dbl>,
## #   alternative.mass.reference <chr>, mean.hra.m2 <dbl>, log10.hra <dbl>,
## #   hra.reference <chr>, realm <chr>, thermoregulation <chr>, locomotion <chr>,
## #   trophic.guild <chr>, dimension <dbl>, preymass <dbl>, log10.preymass <dbl>,
## #   PPMR <dbl>, prey.size.reference <chr>, mass_category <chr>
```
…
```r
homerange %>% 
  mutate(range_category=case_when(log10.hra<3.65 ~ "very small",
                                  log10.hra>=3.65 & log10.hra<= 4.59 ~ "small",
                                  log10.hra>4.59 & log10.hra<=6.02 ~ "medium",
                                  log10.hra>=6.02 ~ "large"))
```

```
## # A tibble: 569 × 25
##    taxon        common.name class order family genus species primarymethod N    
##    <chr>        <chr>       <chr> <chr> <chr>  <chr> <chr>   <chr>         <chr>
##  1 lake fishes  american e… acti… angu… angui… angu… rostra… telemetry     16   
##  2 river fishes blacktail … acti… cypr… catos… moxo… poecil… mark-recaptu… <NA> 
##  3 river fishes central st… acti… cypr… cypri… camp… anomal… mark-recaptu… 20   
##  4 river fishes rosyside d… acti… cypr… cypri… clin… fundul… mark-recaptu… 26   
##  5 river fishes longnose d… acti… cypr… cypri… rhin… catara… mark-recaptu… 17   
##  6 river fishes muskellunge acti… esoc… esoci… esox  masqui… telemetry     5    
##  7 marine fish… pollack     acti… gadi… gadid… poll… pollac… telemetry     2    
##  8 marine fish… saithe      acti… gadi… gadid… poll… virens  telemetry     2    
##  9 marine fish… lined surg… acti… perc… acant… acan… lineat… direct obser… <NA> 
## 10 marine fish… orangespin… acti… perc… acant… naso  litura… telemetry     8    
## # ℹ 559 more rows
## # ℹ 16 more variables: mean.mass.g <dbl>, log10.mass <dbl>,
## #   alternative.mass.reference <chr>, mean.hra.m2 <dbl>, log10.hra <dbl>,
## #   hra.reference <chr>, realm <chr>, thermoregulation <chr>, locomotion <chr>,
## #   trophic.guild <chr>, dimension <dbl>, preymass <dbl>, log10.preymass <dbl>,
## #   PPMR <dbl>, prey.size.reference <chr>, range_category <chr>
```
…
