…
```
## [1] "lakeid"          "fish_id"         "annnumber"       "length"         
## [5] "radii_length_mm" "scalelength"
```

We are only interested in lakeid and scalelength. AKA only a few of the total columns possible. Command tell us: select, name of the dataframe to look into, variables of interest in the dataframe 

because fish is an object, it does not have to be in quotes. 

```r
select(fish, "lakeid", "scalelength")
```

```
## # A tibble: 4,033 × 2
##    lakeid scalelength
##    <chr>        <dbl>
##  1 AL            2.70
##  2 AL            2.70
##  3 AL            2.70
##  4 AL            3.02
##  5 AL            3.02
##  6 AL            3.02
##  7 AL            3.02
##  8 AL            3.34
##  9 AL            3.34
## 10 AL            3.34
## # ℹ 4,023 more rows
```
…
```
## [1] "lakeid"          "fish_id"         "annnumber"       "length"         
## [5] "radii_length_mm" "scalelength"
```

What if we wanted to only pull out fish_id and length from the entire dataframe? Important to note, the order of the pull out variables is the order it appears in the "cut up" dataframe 

```r
select (fish, "fish_id","length")
```

```
## # A tibble: 4,033 × 2
##    fish_id length
##      <dbl>  <dbl>
##  1     299    167
##  2     299    167
##  3     299    167
##  4     300    175
##  5     300    175
##  6     300    175
##  7     300    175
##  8     301    194
##  9     301    194
## 10     301    194
## # ℹ 4,023 more rows
```

```r
fish_subset <- select (fish, "length","fish_id")
```
In this command we create a subset of the dataframe that only inludes the variables we want 

To add a range of columns use `start_col:end_col`.

```r
select(fish, fish_id:length)
```

```
## # A tibble: 4,033 × 3
##    fish_id annnumber length
##      <dbl> <chr>      <dbl>
##  1     299 EDGE         167
##  2     299 2            167
##  3     299 1            167
##  4     300 EDGE         175
##  5     300 3            175
##  6     300 2            175
##  7     300 1            175
##  8     301 EDGE         194
##  9     301 3            194
## 10     301 2            194
## # ℹ 4,023 more rows
```

The - operator is useful in select. It allows us to select everything except the specified variables.

This command will select everything but the specified variable

```r
select(fish, -"fish_id", -"annnumber", -"length", -"radii_length_mm")
```

```
## # A tibble: 4,033 × 2
##    lakeid scalelength
##    <chr>        <dbl>
##  1 AL            2.70
##  2 AL            2.70
##  3 AL            2.70
##  4 AL            3.02
##  5 AL            3.02
##  6 AL            3.02
##  7 AL            3.02
##  8 AL            3.34
##  9 AL            3.34
## 10 AL            3.34
## # ℹ 4,023 more rows
```
…
```
## [1] "lakeid"          "fish_id"         "annnumber"       "length"         
## [5] "radii_length_mm" "scalelength"
```


```r
select(fish, contains("length")) ##this command lets us pull out any variables that contains a keyword 
```

```
## # A tibble: 4,033 × 3
##    length radii_length_mm scalelength
##     <dbl>           <dbl>       <dbl>
##  1    167            2.70        2.70
##  2    167            2.04        2.70
##  3    167            1.31        2.70
##  4    175            3.02        3.02
##  5    175            2.67        3.02
##  6    175            2.14        3.02
##  7    175            1.23        3.02
##  8    194            3.34        3.34
##  9    194            2.97        3.34
## 10    194            2.29        3.34
## # ℹ 4,023 more rows
```

When columns are sequentially named, `starts_with()` makes selecting columns easier.

```r
select(fish, starts_with("radii"))
```

```
## # A tibble: 4,033 × 1
##    radii_length_mm
##              <dbl>
##  1            2.70
##  2            2.04
##  3            1.31
##  4            3.02
##  5            2.67
##  6            2.14
##  7            1.23
##  8            3.34
##  9            2.97
## 10            2.29
## # ℹ 4,023 more rows
```
…
```
## [1] "lakeid"          "fish_id"         "annnumber"       "length"         
## [5] "radii_length_mm" "scalelength"
```


```r
select(fish, ends_with("id"))
```

```
## # A tibble: 4,033 × 2
##    lakeid fish_id
##    <chr>    <dbl>
##  1 AL         299
##  2 AL         299
##  3 AL         299
##  4 AL         300
##  5 AL         300
##  6 AL         300
##  7 AL         300
##  8 AL         301
##  9 AL         301
## 10 AL         301
## # ℹ 4,023 more rows
```


```r
select(fish, contains("fish"))
```

```
## # A tibble: 4,033 × 1
##    fish_id
##      <dbl>
##  1     299
##  2     299
##  3     299
##  4     300
##  5     300
##  6     300
##  7     300
##  8     301
##  9     301
## 10     301
## # ℹ 4,023 more rows
```

We won't cover regular expressions [regex](https://en.wikipedia.org/wiki/Regular_expression) in this class, but the following code is helpful when you know that a column contains a letter (in this case "a") followed by a subsequent string (in this case "er").  

```r
select(fish, matches("a.+er")) #handy but of code for the project. This command looks through the variables of interest to see if they have the letter a and ends with "er" 
```

```
## # A tibble: 4,033 × 1
##    annnumber
##    <chr>    
##  1 EDGE     
##  2 2        
##  3 1        
##  4 EDGE     
##  5 3        
##  6 2        
##  7 1        
##  8 EDGE     
##  9 3        
## 10 2        
## # ℹ 4,023 more rows
```
…
```r
select_if(fish, is.numeric)
```

```
## # A tibble: 4,033 × 4
##    fish_id length radii_length_mm scalelength
##      <dbl>  <dbl>           <dbl>       <dbl>
##  1     299    167            2.70        2.70
##  2     299    167            2.04        2.70
##  3     299    167            1.31        2.70
##  4     300    175            3.02        3.02
##  5     300    175            2.67        3.02
##  6     300    175            2.14        3.02
##  7     300    175            1.23        3.02
##  8     301    194            3.34        3.34
##  9     301    194            2.97        3.34
## 10     301    194            2.29        3.34
## # ℹ 4,023 more rows
```

To select all columns that are *not* a class of data, you need to add a `~`. The ~ says to pull out everything but what you specify 

"look in all variables in the fish dataframe and pull out all the data that is not numeric" The ! in this case means `not`. If you do not include it this same command will pull out all the variables that ARE the category you specify 

```r
select_if(fish, ~!is.numeric(.))
```

```
## # A tibble: 4,033 × 2
##    lakeid annnumber
##    <chr>  <chr>    
##  1 AL     EDGE     
##  2 AL     2        
##  3 AL     1        
##  4 AL     EDGE     
##  5 AL     3        
##  6 AL     2        
##  7 AL     1        
##  8 AL     EDGE     
##  9 AL     3        
## 10 AL     2        
## # ℹ 4,023 more rows
```
…
