…
Do you remember the easier way?

```r
mammals <- clean_names(mammals)
```

Replace mammals with a "new" version of mammals but this time, it has the clean names 


```r
mammals 
```

```
## # A tibble: 1,440 × 13
##    order  family genus species   mass gestation newborn weaning wean_mass    afr
##    <chr>  <chr>  <chr> <chr>    <dbl>     <dbl>   <dbl>   <dbl>     <dbl>  <dbl>
##  1 Artio… Antil… Anti… americ… 4.54e4      8.13   3246.    3         8900   13.5
##  2 Artio… Bovid… Addax nasoma… 1.82e5      9.39   5480     6.5       -999   27.3
##  3 Artio… Bovid… Aepy… melamp… 4.15e4      6.35   5093     5.63     15900   16.7
##  4 Artio… Bovid… Alce… busela… 1.5 e5      7.9   10167.    6.5       -999   23.0
##  5 Artio… Bovid… Ammo… clarkei 2.85e4      6.8    -999  -999         -999 -999  
##  6 Artio… Bovid… Ammo… lervia  5.55e4      5.08   3810     4         -999   14.9
##  7 Artio… Bovid… Anti… marsup… 3   e4      5.72   3910     4.04      -999   10.2
##  8 Artio… Bovid… Anti… cervic… 3.75e4      5.5    3846     2.13      -999   20.1
##  9 Artio… Bovid… Bison bison   4.98e5      8.93  20000    10.7     157500   29.4
## 10 Artio… Bovid… Bison bonasus 5   e5      9.14  23000.    6.6       -999   30.0
## # ℹ 1,430 more rows
## # ℹ 3 more variables: max_life <dbl>, litter_size <dbl>, litters_per_year <dbl>
```
…
```
##  [1] "AL"  "AR"  "BO"  "BR"  "CR"  "DY"  "FD"  "JN"  "LC"  "LJ"  "LR"  "LSG"
## [13] "MN"  "RD"  "UB"  "WS"
```

Now we can pull out any state of interest.  

```r
filter(fish, lakeid=="LJ")
```

```
## # A tibble: 181 × 6
##    lakeid fish_id annnumber length radii_length_mm scalelength
##    <fct>    <dbl> <chr>      <dbl>           <dbl>       <dbl>
##  1 LJ         239 EDGE         245            4.10        4.10
##  2 LJ         239 8            245            3.87        4.10
##  3 LJ         239 7            245            3.63        4.10
##  4 LJ         239 6            245            3.42        4.10
##  5 LJ         239 5            245            3.19        4.10
##  6 LJ         239 4            245            2.84        4.10
##  7 LJ         239 3            245            2.50        4.10
##  8 LJ         239 2            245            2.12        4.10
##  9 LJ         239 1            245            1.33        4.10
## 10 LJ         240 EDGE         249            4.40        4.40
## # ℹ 171 more rows
```

## Using `filter()` on multiple conditions
You can also use `filter()` to extract data based on multiple conditions. Below we extract only the fish that have lakeid "AL" and length >350.

```r
filter(fish, lakeid == "AL" & length > 350)
```

```
## # A tibble: 314 × 6
##    lakeid fish_id annnumber length radii_length_mm scalelength
##    <fct>    <dbl> <chr>      <dbl>           <dbl>       <dbl>
##  1 AL         307 EDGE         353            7.55        7.55
##  2 AL         307 13           353            7.28        7.55
##  3 AL         307 12           353            6.98        7.55
##  4 AL         307 11           353            6.73        7.55
##  5 AL         307 10           353            6.48        7.55
##  6 AL         307 9            353            6.22        7.55
##  7 AL         307 8            353            5.92        7.55
##  8 AL         307 7            353            5.44        7.55
##  9 AL         307 6            353            5.06        7.55
## 10 AL         307 5            353            4.37        7.55
## # ℹ 304 more rows
```

Filter the fish data. I want the lakeid to be AL AND I want the length to be greater than 350 

Notice that the `|` operator generates a different result.

```r
filter(fish, lakeid == "AL" | length > 350)
```

```
## # A tibble: 948 × 6
##    lakeid fish_id annnumber length radii_length_mm scalelength
##    <fct>    <dbl> <chr>      <dbl>           <dbl>       <dbl>
##  1 AL         299 EDGE         167            2.70        2.70
##  2 AL         299 2            167            2.04        2.70
##  3 AL         299 1            167            1.31        2.70
##  4 AL         300 EDGE         175            3.02        3.02
##  5 AL         300 3            175            2.67        3.02
##  6 AL         300 2            175            2.14        3.02
##  7 AL         300 1            175            1.23        3.02
##  8 AL         301 EDGE         194            3.34        3.34
##  9 AL         301 3            194            2.97        3.34
## 10 AL         301 2            194            2.29        3.34
## # ℹ 938 more rows
```
…
Rules:  
+ `filter(condition1, condition2)` will return rows where both conditions are met.  
+ `filter(condition1, !condition2)` will return all rows where condition one is true but condition 2 is not.  
+ `filter(condition1 | condition2)` will return rows where condition 1 or condition 2 is met.  
+ `filter(xor(condition1, condition2)` will return all rows where only one of the conditions is met, and not when both conditions are met.  

In this case, we filter out the fish with a length over 400 and a scale length over 11 OR a radii length over 8.

```r
filter(fish, length > 400, (scalelength > 11 | radii_length_mm > 8))
```

```
## # A tibble: 23 × 6
##    lakeid fish_id annnumber length radii_length_mm scalelength
##    <fct>    <dbl> <chr>      <dbl>           <dbl>       <dbl>
##  1 AL         324 EDGE         406            8.21        8.21
##  2 AL         327 EDGE         413            8.33        8.33
##  3 AL         327 15           413            8.11        8.33
##  4 AL         328 EDGE         420            8.71        8.71
##  5 AL         328 16           420            8.41        8.71
##  6 AL         328 15           420            8.14        8.71
##  7 WS         180 EDGE         403           11.0        11.0 
##  8 WS         180 16           403           10.6        11.0 
##  9 WS         180 15           403           10.3        11.0 
## 10 WS         180 14           403            9.93       11.0 
## # ℹ 13 more rows
```
…
2. From the `mammals` data, build a data frame that compares `mass`, `gestation`, and `newborn` among the primate genera `Lophocebus`, `Erythrocebus`, and `Macaca`. Among these genera, which species has the smallest `newborn` mass?

```r
new_mammals <- select(mammals, "order", "genus", "mass", "gestation", "newborn")
```


```r
new_mammals
```

```
## # A tibble: 1,440 × 5
##    order        genus          mass gestation newborn
##    <chr>        <chr>         <dbl>     <dbl>   <dbl>
##  1 Artiodactyla Antilocapra  45375       8.13   3246.
##  2 Artiodactyla Addax       182375       9.39   5480 
##  3 Artiodactyla Aepyceros    41480       6.35   5093 
##  4 Artiodactyla Alcelaphus  150000       7.9   10167.
##  5 Artiodactyla Ammodorcas   28500       6.8    -999 
##  6 Artiodactyla Ammotragus   55500       5.08   3810 
##  7 Artiodactyla Antidorcas   30000       5.72   3910 
##  8 Artiodactyla Antilope     37500       5.5    3846 
##  9 Artiodactyla Bison       497667.      8.93  20000 
## 10 Artiodactyla Bison       500000       9.14  23000.
## # ℹ 1,430 more rows
```


```r
mammals_primate_only <- filter(new_mammals, order=="Primates")
```


```r
mammals_primate_only
```

```
## # A tibble: 156 × 5
##    order    genus           mass gestation newborn
##    <chr>    <chr>          <dbl>     <dbl>   <dbl>
##  1 Primates Callimico       558.      5.18    49.1
##  2 Primates Callithrix      343.   -999       34.5
##  3 Primates Callithrix      357.   -999     -999  
##  4 Primates Callithrix      117.      4.6     16.2
##  5 Primates Callithrix      307    -999     -999  
##  6 Primates Callithrix      406    -999     -999  
##  7 Primates Callithrix      309       4.9     27.1
##  8 Primates Leontopithecus  558       4.35    55.1
##  9 Primates Saguinus        490    -999       44  
## 10 Primates Saguinus        446.   -999       35  
## # ℹ 146 more rows
```
…
