…
```r
penguins%>% 
  group_by(species, bill_length_mm) %>% 
  summarize(mean_bill_length= mean(bill_length_mm,na.RM=T)) ##notice that the na.Rm=T is inside the command taking the mean because this is specifically where we want to remove the NA from for the calculations we want to do 
```

```
## `summarise()` has grouped output by 'species'. You can override using the
## `.groups` argument.
```

```
## # A tibble: 210 × 3
## # Groups:   species [3]
##    species bill_length_mm mean_bill_length
##    <fct>            <dbl>            <dbl>
##  1 Adelie            32.1             32.1
##  2 Adelie            33.1             33.1
##  3 Adelie            33.5             33.5
##  4 Adelie            34               34  
##  5 Adelie            34.1             34.1
##  6 Adelie            34.4             34.4
##  7 Adelie            34.5             34.5
##  8 Adelie            34.6             34.6
##  9 Adelie            35               35  
## 10 Adelie            35.1             35.1
## # ℹ 200 more rows
```
…
```r
penguins %>% 
  group_by(island,sex)
```

```
## # A tibble: 344 × 8
## # Groups:   island, sex [9]
##    species island    bill_length_mm bill_depth_mm flipper_length_mm body_mass_g
##    <fct>   <fct>              <dbl>         <dbl>             <int>       <int>
##  1 Adelie  Torgersen           39.1          18.7               181        3750
##  2 Adelie  Torgersen           39.5          17.4               186        3800
##  3 Adelie  Torgersen           40.3          18                 195        3250
##  4 Adelie  Torgersen           NA            NA                  NA          NA
##  5 Adelie  Torgersen           36.7          19.3               193        3450
##  6 Adelie  Torgersen           39.3          20.6               190        3650
##  7 Adelie  Torgersen           38.9          17.8               181        3625
##  8 Adelie  Torgersen           39.2          19.6               195        4675
##  9 Adelie  Torgersen           34.1          18.1               193        3475
## 10 Adelie  Torgersen           42            20.2               190        4250
## # ℹ 334 more rows
## # ℹ 2 more variables: sex <fct>, year <int>
```
…
